24
10
0.5
461
19
0
3.75303
9.3984
16.6891
23.4655
30.3718
36.8396
45.2657
50.875
57.0244
63.5297
70.1528
74.8201
79.6487
82.7967
85.7412
86.1804
87.3181
90
1
0.99767
0.98966
0.96931
0.94257
0.9015
0.86253
0.79206
0.73975
0.66757
0.59024
0.4909
0.41214
0.31985
0.23936
0.15478
0.01917
0.08188
0
